Create Raster Tiles • grout
…
We can generate a table of offset indexes, for use in reading from GDAL (say).

tile_index(t2)
#> # A tibble: 36 × 5
#>     tile offset_x offset_y  ncol  nrow
#>    <int>    <dbl>    <dbl> <int> <dbl>
#>  1     1        0        0    12    16
#>  2     2        1        0    12    16
#>  3     3        2        0    12    16
#>  4     4        3        0    12    16
#>  5     5        4        0    12    16
#>  6     6        5        0    11    16
#>  7     7        0        1    12    16
#>  8     8        1        1    12    16
#>  9     9        2        1    12    16
#> 10    10        3        1    12    16
#> # … with 26 more rows
…
